v 1.00000 1.00000 0.00000
v 1.00000 -1.00000 0.00000
v -1.00000 -1.00000 0.00000
v -1.00000 1.00000 0.00000
vt 1.00000 1.00000
vt 1.00000 0.00000
vt 0.00000 0.00000
vt 0.00000 1.00000
f 1/1 4/4 3/3
f 1/1 3/3 2/2
